Time Series Forecasting – Stock Viz
…
3.2 Fetching and Preparing Stock Data

Our stock data will be retrieved from Yahoo Finance using quantmod. We focus on closing prices, which will serve as the primary target variable in our forecasting.

Let us start by using the tq_get() function to see how the data is structured and what columns are available.

Show the code

tq_get("AAPL")

# A tibble: 2,570 × 8
   symbol date        open  high   low close    volume adjusted
   <chr>  <date>     <dbl> <dbl> <dbl> <dbl>     <dbl>    <dbl>
 1 AAPL   2015-01-02  27.8  27.9  26.8  27.3 212818400     24.3
 2 AAPL   2015-01-05  27.1  27.2  26.4  26.6 257142000     23.6
 3 AAPL   2015-01-06  26.6  26.9  26.2  26.6 263188400     23.6
 4 AAPL   2015-01-07  26.8  27.0  26.7  26.9 160423600     24.0
 5 AAPL   2015-01-08  27.3  28.0  27.2  28.0 237458000     24.9
 6 AAPL   2015-01-09  28.2  28.3  27.6  28.0 214798000     24.9
 7 AAPL   2015-01-12  28.1  28.2  27.2  27.3 198603200     24.3
 8 AAPL   2015-01-13  27.9  28.2  27.2  27.6 268367600     24.5
 9 AAPL   2015-01-14  27.3  27.6  27.1  27.5 195826400     24.4
10 AAPL   2015-01-15  27.5  27.5  26.7  26.7 240056000     23.8
# ℹ 2,560 more rows
…
